FINSTAD Financial Database
…
monthly_avg_returns <- unified_clean |>
  mutate(year_month = format(date, "%Y-%m")) |>
  group_by(year_month) |>
  summarise(
    avg_amd = mean(amd_return, na.rm = TRUE),
    avg_eth = mean(eth_return, na.rm = TRUE),
    avg_phi = mean(phi_return, na.rm = TRUE),
    avg_spy = mean(spy_return, na.rm = TRUE)
  )

monthly_avg_returns

## # A tibble: 72 × 5
##    year_month   avg_amd    avg_eth     avg_phi   avg_spy
##    <chr>          <dbl>      <dbl>       <dbl>     <dbl>
##  1 2020-01    -0.00216   0.0164    -0.000392   -0.000379
##  2 2020-02    -0.00265   0.00902   -0.00183    -0.00430 
##  3 2020-03     0.00253   0.00351    0.00710    -0.00451 
##  4 2020-04     0.00536   0.0227     0.00799     0.00677 
##  5 2020-05     0.00374   0.00921    0.00000866  0.00190 
##  6 2020-06    -0.000633 -0.0000952  0.000152    0.000959
##  7 2020-07     0.0188    0.0118     0.00406     0.00203 
##  8 2020-08     0.00825   0.00327    0.00644     0.00323 
##  9 2020-09    -0.00256   0.00129   -0.00539    -0.000421
## 10 2020-10    -0.00353   0.000139  -0.0000552  -0.00107 
## # ℹ 62 more rows
…
quarterly_prices <- unified_clean |>
  mutate(year_quarter = paste0(lubridate::year(date), "-Q", lubridate::quarter(date))) |>
  group_by(year_quarter) |>
  summarise(
    avg_spy_price = mean(spy_price, na.rm = TRUE),
    avg_amd_price = mean(amd_price, na.rm = TRUE),
    avg_phi_price = mean(phi_price, na.rm = TRUE),
    avg_eth_price = mean(eth_price, na.rm = TRUE)
  )

quarterly_prices

## # A tibble: 24 × 5
##    year_quarter avg_spy_price avg_amd_price avg_phi_price avg_eth_price
##    <chr>                <dbl>         <dbl>         <dbl>         <dbl>
##  1 2020-Q1               277.          48.0          13.1          184.
##  2 2020-Q2               269.          53.1          16.2          207.
##  3 2020-Q3               306.          74.5          19.3          346.
##  4 2020-Q4               328.          86.2          19.5          490.
##  5 2021-Q1               359.          85.8          19.7         1567.
##  6 2021-Q2               389.          80.8          19.2         2635.
##  7 2021-Q3               412.         102.           20.0         2828.
##  8 2021-Q4               430.         134.           25.2         4096.
##  9 2022-Q1               419.         119.           26.8         2945.
## 10 2022-Q2               387.          93.6          27.3         2219.
## # ℹ 14 more rows
…
